{
    "containerDefinitions": [
        {
            "memory": 100,
            "memoryReservation": 100,
            "portMappings": [
                {
                    "containerPort": 8080
                }
            ],
            "essential": true,
            "name": "meetupapp",
            "image": "<< REPOSITORY URL PATH TO YOUR CONTAINER IMAGE HERE >>",
            "logConfiguration": {
                "logDriver": "awslogs",
                "options": {
                    "awslogs-group": "ecs-log-streaming",
                    "awslogs-region": "us-east-1",
                    "awslogs-stream-prefix": "meetup-task"
                }
            },
            "cpu": 0
        }
    ],
    "networkMode": "bridge",
    "memory": "200",
    "cpu": "200",
    "requiresCompatibilities": [
        "EC2"
    ],
    "family": "meetup_task"
}
